%YAML 1.1
%TAG !u! tag:unity3d.com,2011:
--- !u!114 &11400000
MonoBehaviour:
  m_ObjectHideFlags: 0
  m_CorrespondingSourceObject: {fileID: 0}
  m_PrefabInstance: {fileID: 0}
  m_PrefabAsset: {fileID: 0}
  m_GameObject: {fileID: 0}
  m_Enabled: 1
  m_EditorHideFlags: 0
  m_Script: {fileID: 11500000, guid: 31994a7b30ff08a419a3789649e7f90a, type: 3}
  m_Name: LevelPositions16
  m_EditorClassIdentifier: 
  EnemyPosition:
  - Number: 13
    Position: {x: -58.66, y: 0, z: 21.81}
  - Number: 12
    Position: {x: -53.26, y: 0, z: 34.57}
  - Number: 11
    Position: {x: -51.07, y: 0, z: 51.59}
  - Number: 10
    Position: {x: -42.5, y: 0, z: 41.68}
  - Number: 9
    Position: {x: -32.9, y: 0, z: 51.8}
  - Number: 8
    Position: {x: -20.4, y: 0, z: 64.5}
  - Number: 7
    Position: {x: -3.4, y: 0, z: 69.3}
  - Number: 6
    Position: {x: 6.1, y: 0, z: 57.3}
  - Number: 5
    Position: {x: -8.4, y: 0, z: 49.1}
  - Number: 4
    Position: {x: 1.5, y: 0, z: 36.6}
  - Number: 3
    Position: {x: -13.4, y: 0, z: 30.2}
  - Number: 2
    Position: {x: -1.831579, y: 0, z: 19.986074}
  - Number: 1
    Position: {x: -16.373085, y: 0, z: 7.9642987}
  StrongEnemyPosition:
  - Number: 15
    Position: {x: -50.6, y: 0, z: 71.7}
  - Number: 14
    Position: {x: -45.90226, y: 0, z: 20.642479}
