%YAML 1.1
%TAG !u! tag:unity3d.com,2011:
--- !u!114 &11400000
MonoBehaviour:
  m_ObjectHideFlags: 0
  m_CorrespondingSourceObject: {fileID: 0}
  m_PrefabInstance: {fileID: 0}
  m_PrefabAsset: {fileID: 0}
  m_GameObject: {fileID: 0}
  m_Enabled: 1
  m_EditorHideFlags: 0
  m_Script: {fileID: 11500000, guid: 31994a7b30ff08a419a3789649e7f90a, type: 3}
  m_Name: LevelPositions20
  m_EditorClassIdentifier: 
  EnemyPosition:
  - Number: 11
    Position: {x: 26.1, y: 0, z: 58.3}
  - Number: 10
    Position: {x: 29.981478, y: 0, z: 46.929245}
  - Number: 9
    Position: {x: 39.96, y: 0, z: 54.27}
  - Number: 7
    Position: {x: 49.32, y: 0, z: 16.86}
  - Number: 6
    Position: {x: 39.04, y: 0, z: 20.35}
  - Number: 5
    Position: {x: 30.26, y: 0, z: 29.63}
  - Number: 4
    Position: {x: 30.65, y: 0, z: 10.82}
  - Number: 3
    Position: {x: 20, y: 0, z: 16.7}
  - Number: 2
    Position: {x: 8.36, y: 0, z: 20.72}
  - Number: 1
    Position: {x: -2.76, y: 0, z: 15.19}
  StrongEnemyPosition:
  - Number: 12
    Position: {x: 13.7, y: 0, z: 56.3}
  - Number: 8
    Position: {x: 47.622482, y: 0, z: 31.639448}
