%YAML 1.1
%TAG !u! tag:unity3d.com,2011:
--- !u!114 &11400000
MonoBehaviour:
  m_ObjectHideFlags: 0
  m_CorrespondingSourceObject: {fileID: 0}
  m_PrefabInstance: {fileID: 0}
  m_PrefabAsset: {fileID: 0}
  m_GameObject: {fileID: 0}
  m_Enabled: 1
  m_EditorHideFlags: 0
  m_Script: {fileID: 11500000, guid: 31994a7b30ff08a419a3789649e7f90a, type: 3}
  m_Name: LevelPositions2
  m_EditorClassIdentifier: 
  EnemyPosition:
  - Number: 3
    Position: {x: -8, y: 0, z: 8.79}
  - Number: 1
    Position: {x: 2.37, y: 0, z: 28.33}
  - Number: 2
    Position: {x: -0.42, y: 0, z: 14.05}
  StrongEnemyPosition: []
